<!-- eslint-disable -->
<template>
  <div>

  </div>
</template>
<script>
  import {mapActions, mapState, mapMutations} from "vuex";
  export default{
		name:'',
    data: () => ({
      //
    }),
    computed: {
      ...mapState({
        //
      })
    },
    mounted(){
      //
    },
		methods: {
      //
    }
  }
</script>